<svg xmlns="http://www.w3.org/2000/svg" width="350.743" height="43" viewBox="0 0 350.743 43">
  <path id="Path_727" data-name="Path 727" d="M585,540H260l20-20-20-20H585l20,20Z" transform="translate(-256.379 -498.5)" fill="#56a3b2" stroke="#fff" stroke-miterlimit="10" stroke-width="3"/>
</svg>
