<svg xmlns="http://www.w3.org/2000/svg" width="48.386" height="33.662" viewBox="0 0 48.386 33.662">
  <g id="Group_3401" data-name="Group 3401" transform="translate(-212.806 -996.373)">
    <path id="Path_1899" data-name="Path 1899" d="M261.179,1027.008a.515.515,0,0,0-.011-.054.829.829,0,0,0-.026-.085c-.006-.017-.012-.034-.019-.051a.83.83,0,0,0-.048-.089.279.279,0,0,1-.019-.034.836.836,0,0,0-.09-.107.2.2,0,0,0-.027-.023.576.576,0,0,0-.081-.067.468.468,0,0,0-.047-.029c-.018-.011-.035-.023-.054-.033l-5.9-2.92V997.154a.781.781,0,0,0-.78-.781H219.734a.781.781,0,0,0-.78.781v26.368l-5.723,2.918c-.017.009-.031.02-.047.03s-.033.019-.049.03-.05.04-.074.061-.022.019-.033.029a.777.777,0,0,0-.089.109l-.008.014a.941.941,0,0,0-.058.108c-.007.015-.012.032-.018.048a.719.719,0,0,0-.027.087l-.011.054a.743.743,0,0,0-.008.095.3.3,0,0,0,0,.031v2.119a.779.779,0,0,0,.78.78h46.826a.78.78,0,0,0,.78-.78v-2.119c0-.011,0-.021,0-.032A.773.773,0,0,0,261.179,1027.008Zm-44.345-.653,3.088-1.574H253.89l3.184,1.574Zm3.681-28.42h32.778v25.286H220.515Zm39.116,30.54H214.366v-.559h45.265Z" fill="#fff"/>
    <path id="Path_1900" data-name="Path 1900" d="M249.947,999.6H223.86a.78.78,0,0,0-.78.78v17.586a.781.781,0,0,0,.78.781h26.087a.781.781,0,0,0,.78-.781v-17.586A.78.78,0,0,0,249.947,999.6Zm-.78,17.586H224.641V1001.16h24.526Z" fill="#fff"/>
    <path id="Path_1901" data-name="Path 1901" d="M237.216,1019.188a1.678,1.678,0,1,0,1.678,1.678A1.68,1.68,0,0,0,237.216,1019.188Zm0,2.419a.741.741,0,1,1,.741-.741A.741.741,0,0,1,237.216,1021.607Z" fill="#fff"/>
  </g>
</svg>
